Final Project Version 2.0
…
Language Count

language_twitch <- twitch %>%
  group_by(language) %>%   # Group the data by the language column
  summarise(count = n())

language_twitch

# A tibble: 21 × 2
   language  count
   <chr>     <int>
 1 Arabic        5
 2 Chinese      30
 3 Czech         6
 4 English     485
 5 Finnish       1
 6 French       66
 7 German       49
 8 Greek         1
 9 Hungarian     2
10 Italian      17
# ℹ 11 more rows
…
